{
  "name": "sms-apigateway",
  "version": "0.0.0",
  "description": "",
  "sampleUrl": false,
  "defaultVersion": "0.0.0",
  "apidoc": "0.3.0",
  "generator": {
    "name": "apidoc",
    "time": "2018-08-25T16:31:07.341Z",
    "url": "http://apidocjs.com",
    "version": "0.17.6"
  }
}
